@startuml Store

package products {
abstract class Product {
    + String name 
    + String SKU

    + Product(Builder<?> builder)
    + String getSku()
}


class Builder<T extends<Builder>> {
    - String name
    - String SKU

    + name(String name) : T
    + SKU(String SKU) : T
    {abstract} Product build()
    {abstract} # self() : T
}
note top of Builder : Todos los Class.Builder heredan de esta clase

Product +-- Builder

class Movie {
    - String description
    - String rating
    - MovieType type

    - Movie(Builder builder)
}

Product <|-- Movie

class Movie.Builder {
    - String description
    - String rating
    - MovieType type

    + description(String description) : Builder
    + rating(String ratin) : Builder
    + type(String type) : Builder
    + build() : Movie
    # self() : Builder
}

Movie +-- Movie.Builder

class Music {
    - String artistName
    - int songs
    - int releaseYear
    - MusicType type 

    - Music(Builder builder)
}

Product <|-- Music

class Music.Builder {
    - String artistName
    - int songs
    - int releaseYear
    - MusicType type 

    + artistName(String artist) : Builder
    + songs(int songs) : Builder
    + releaseYear(int year) : Builder
    + type(String type) : Builder
    + build() : Music
}

Music +-- Music.Builder

class Videogame {
    - String description
    - String genre 
    - String rating 

    - Videogame(Builder builder)    
}

Product <|-- Videogame

class Videogame.Builder {
    - String description
    - String genre 
    - String rating 
    
    + description(String description) : Builder
    + genre(String genre) : Builder
    + rating(String rating) : Builder
    + build() : Videogame
}

Videogame +-- Videogame.Builder

class Headphones {
    - int minFreq
    - int maxFreq
    - int impedance
    - int dB
    - HeadphonesType type

    - Headphones(Builder builder)
}

Product <|-- Headphones

class Headphones.Builder {
    - int minFreq
    - int maxFreq
    - int impedance
    - int dB
    - HeadphonesType type

    + minFreq(int freq) : Builder
    + maxFreq(int freq) : Builder
    + impedance(int val) : Builder
    + dB(int db) : Builder
    + type(String type) : Builder
    + build() : Headphones
}

Headphones +-- Headphones.Builder

class Speakers {
    - int weight
    - int power 
    - SpeakersType type

    - Speakers(Build build)
}

Product <|-- Speakers

class Speakers.Builder {
    - int weight
    - int power 
    - SpeakersType type

    + weight(int w) : Builder
    + power(int p) : Builder
    + type(String type) : Builder
    + build() : Speakers
}

Speakers +-- Speakers.Builder

class Turntable {
    - int speeds 
    - Turntable type

    + Turntable(Build build)
}

Product <|-- Turntable

class Turntable.Builder {
    - int speeds 
    - Turntable type

    + speeds(int speeds) : Builder
    + type(String type) : Builder
    + build() : Turntable
}

Turntable +-- Turntable.Builder
}

package menu {
    class MainMenu {
        - DateTime dt 
        - Scanner sc 
        - Inventory inventory

        + MainMenu()
        + menu() : void
        + addProduct() : void
        + findProduct() : void 
        + saleProduct() : void 
        + generateReport() : void 
        + getGreeting() : void 
    }

    class AddProductMenu {
        - Scanner sc

        + AddProductMenu()
        + addMovie() : Stock
        + addMusic() : Stock
        + addVideogame() : Stock
        + addHeadphones() : Stock
        + addSpeakers() : Stock
        + addTurntable() : Stock
    }
}

@enduml